C:/Users/khatti/STM32CubeIDE/workspace_1.8.0/esp-hosted-eval/Middlewares/ST/netxduo/crypto_libraries/src/nx_crypto_aes.c:456:28:_nx_crypto_aes_add_round_key	24	static
C:/Users/khatti/STM32CubeIDE/workspace_1.8.0/esp-hosted-eval/Middlewares/ST/netxduo/crypto_libraries/src/nx_crypto_aes.c:514:28:_nx_crypto_aes_sub_shift_roundkey	40	static
C:/Users/khatti/STM32CubeIDE/workspace_1.8.0/esp-hosted-eval/Middlewares/ST/netxduo/crypto_libraries/src/nx_crypto_aes.c:606:28:_nx_crypto_aes_inv_sub_shift_roundkey	40	static
C:/Users/khatti/STM32CubeIDE/workspace_1.8.0/esp-hosted-eval/Middlewares/ST/netxduo/crypto_libraries/src/nx_crypto_aes.c:722:28:_nx_crypto_aes_encryption_round	56	static
C:/Users/khatti/STM32CubeIDE/workspace_1.8.0/esp-hosted-eval/Middlewares/ST/netxduo/crypto_libraries/src/nx_crypto_aes.c:906:28:_nx_crypto_aes_decryption_round	64	static
C:/Users/khatti/STM32CubeIDE/workspace_1.8.0/esp-hosted-eval/Middlewares/ST/netxduo/crypto_libraries/src/nx_crypto_aes.c:1051:21:_nx_crypto_aes_encrypt	40	static
C:/Users/khatti/STM32CubeIDE/workspace_1.8.0/esp-hosted-eval/Middlewares/ST/netxduo/crypto_libraries/src/nx_crypto_aes.c:1179:28:_nx_crypto_aes_subword	24	static
C:/Users/khatti/STM32CubeIDE/workspace_1.8.0/esp-hosted-eval/Middlewares/ST/netxduo/crypto_libraries/src/nx_crypto_aes.c:1230:28:_nx_crypto_aes_key_expansion	40	static
C:/Users/khatti/STM32CubeIDE/workspace_1.8.0/esp-hosted-eval/Middlewares/ST/netxduo/crypto_libraries/src/nx_crypto_aes.c:1355:28:_nx_crypto_aes_key_expansion_inverse	56	static
C:/Users/khatti/STM32CubeIDE/workspace_1.8.0/esp-hosted-eval/Middlewares/ST/netxduo/crypto_libraries/src/nx_crypto_aes.c:1500:21:_nx_crypto_aes_decrypt	48	static
C:/Users/khatti/STM32CubeIDE/workspace_1.8.0/esp-hosted-eval/Middlewares/ST/netxduo/crypto_libraries/src/nx_crypto_aes.c:1638:21:_nx_crypto_aes_key_set	32	static
C:/Users/khatti/STM32CubeIDE/workspace_1.8.0/esp-hosted-eval/Middlewares/ST/netxduo/crypto_libraries/src/nx_crypto_aes.c:1721:22:_nx_crypto_method_aes_init	24	static
C:/Users/khatti/STM32CubeIDE/workspace_1.8.0/esp-hosted-eval/Middlewares/ST/netxduo/crypto_libraries/src/nx_crypto_aes.c:1802:22:_nx_crypto_method_aes_cleanup	16	static
C:/Users/khatti/STM32CubeIDE/workspace_1.8.0/esp-hosted-eval/Middlewares/ST/netxduo/crypto_libraries/src/nx_crypto_aes.c:1878:22:_nx_crypto_method_aes_operation	72	static
C:/Users/khatti/STM32CubeIDE/workspace_1.8.0/esp-hosted-eval/Middlewares/ST/netxduo/crypto_libraries/src/nx_crypto_aes.c:2023:22:_nx_crypto_method_aes_cbc_operation	48	static
C:/Users/khatti/STM32CubeIDE/workspace_1.8.0/esp-hosted-eval/Middlewares/ST/netxduo/crypto_libraries/src/nx_crypto_aes.c:2197:22:_nx_crypto_method_aes_ccm_operation	64	static
C:/Users/khatti/STM32CubeIDE/workspace_1.8.0/esp-hosted-eval/Middlewares/ST/netxduo/crypto_libraries/src/nx_crypto_aes.c:2494:22:_nx_crypto_method_aes_gcm_operation	56	static
C:/Users/khatti/STM32CubeIDE/workspace_1.8.0/esp-hosted-eval/Middlewares/ST/netxduo/crypto_libraries/src/nx_crypto_aes.c:2789:22:_nx_crypto_method_aes_ctr_operation	48	static
C:/Users/khatti/STM32CubeIDE/workspace_1.8.0/esp-hosted-eval/Middlewares/ST/netxduo/crypto_libraries/src/nx_crypto_aes.c:2939:22:_nx_crypto_method_aes_xcbc_operation	64	static
