C:/Users/khatti/Documents/esp-hosted-h7/host/host_common/transport_pserial.c:40:10:compose_tlv	32	static
C:/Users/khatti/Documents/esp-hosted-h7/host/host_common/transport_pserial.c:63:9:parse_tlv	96	static
C:/Users/khatti/Documents/esp-hosted-h7/host/host_common/transport_pserial.c:103:11:transport_pserial_data_handler	48	static
