C:/Users/khatti/STM32CubeIDE/workspace_1.8.0/esp-hosted-eval/Middlewares/ST/netxduo/common/src/nx_ipv6_util.c:63:5:CHECK_IP_ADDRESSES_BY_PREFIX	40	static
C:/Users/khatti/STM32CubeIDE/workspace_1.8.0/esp-hosted-eval/Middlewares/ST/netxduo/common/src/nx_ipv6_util.c:159:5:CHECK_IPV6_ADDRESSES_SAME	16	static
C:/Users/khatti/STM32CubeIDE/workspace_1.8.0/esp-hosted-eval/Middlewares/ST/netxduo/common/src/nx_ipv6_util.c:348:5:CHECK_UNSPECIFIED_ADDRESS	16	static
C:/Users/khatti/STM32CubeIDE/workspace_1.8.0/esp-hosted-eval/Middlewares/ST/netxduo/common/src/nx_ipv6_util.c:399:6:SET_UNSPECIFIED_ADDRESS	16	static
C:/Users/khatti/STM32CubeIDE/workspace_1.8.0/esp-hosted-eval/Middlewares/ST/netxduo/common/src/nx_ipv6_util.c:454:6:COPY_IPV6_ADDRESS	16	static
C:/Users/khatti/STM32CubeIDE/workspace_1.8.0/esp-hosted-eval/Middlewares/ST/netxduo/common/src/nx_ipv6_util.c:515:6:COPY_NXD_ADDRESS	16	static
C:/Users/khatti/STM32CubeIDE/workspace_1.8.0/esp-hosted-eval/Middlewares/ST/netxduo/common/src/nx_ipv6_util.c:575:6:SET_SOLICITED_NODE_MULTICAST_ADDRESS	16	static
C:/Users/khatti/STM32CubeIDE/workspace_1.8.0/esp-hosted-eval/Middlewares/ST/netxduo/common/src/nx_ipv6_util.c:634:5:CHECK_ALL_ROUTER_MCAST_ADDRESS	16	static
C:/Users/khatti/STM32CubeIDE/workspace_1.8.0/esp-hosted-eval/Middlewares/ST/netxduo/common/src/nx_ipv6_util.c:701:5:CHECK_IPV6_SOLICITED_NODE_MCAST_ADDRESS	16	static
C:/Users/khatti/STM32CubeIDE/workspace_1.8.0/esp-hosted-eval/Middlewares/ST/netxduo/common/src/nx_ipv6_util.c:789:7:IPv6_Address_Type	16	static
C:/Users/khatti/STM32CubeIDE/workspace_1.8.0/esp-hosted-eval/Middlewares/ST/netxduo/common/src/nx_ipv6_util.c:930:6:_nx_ipv6_address_change_endian	16	static
