C:/Users/khatti/STM32CubeIDE/workspace_1.8.0/esp-hosted-eval/Middlewares/ST/netxduo/common/src/nx_md5.c:135:7:_nx_md5_initialize	16	static
C:/Users/khatti/STM32CubeIDE/workspace_1.8.0/esp-hosted-eval/Middlewares/ST/netxduo/common/src/nx_md5.c:201:7:_nx_md5_update	32	static
C:/Users/khatti/STM32CubeIDE/workspace_1.8.0/esp-hosted-eval/Middlewares/ST/netxduo/common/src/nx_md5.c:327:7:_nx_md5_digest_calculate	32	static
C:/Users/khatti/STM32CubeIDE/workspace_1.8.0/esp-hosted-eval/Middlewares/ST/netxduo/common/src/nx_md5.c:422:7:_nx_md5_process_buffer	104	static
